<?xml version="1.0" encoding="UTF-8" standalone="no"?>
<!DOCTYPE svg PUBLIC "-//W3C//DTD SVG 1.1//EN"
 "http://www.w3.org/Graphics/SVG/1.1/DTD/svg11.dtd">
<!-- Generated by graphviz version 8.0.4 (20230422.2207)
 -->
<!-- Title: workflow Pages: 1 -->
<svg width="285pt" height="264pt"
 viewBox="0.00 0.00 285.00 264.00" xmlns="http://www.w3.org/2000/svg" xmlns:xlink="http://www.w3.org/1999/xlink">
<g id="graph0" class="graph" transform="scale(1 1) rotate(0) translate(4 260)">
<title>workflow</title>
<polygon fill="white" stroke="none" points="-4,4 -4,-260 281,-260 281,4 -4,4"/>
<!-- FormatE -->
<g id="node1" class="node">
<title>FormatE</title>
<path fill="#ececff" stroke="#6699ff" d="M89.5,-219.5C89.5,-219.5 176.5,-219.5 176.5,-219.5 182.5,-219.5 188.5,-225.5 188.5,-231.5 188.5,-231.5 188.5,-243.5 188.5,-243.5 188.5,-249.5 182.5,-255.5 176.5,-255.5 176.5,-255.5 89.5,-255.5 89.5,-255.5 83.5,-255.5 77.5,-249.5 77.5,-243.5 77.5,-243.5 77.5,-231.5 77.5,-231.5 77.5,-225.5 83.5,-219.5 89.5,-219.5"/>
<text text-anchor="middle" x="133" y="-232.6" font-family="Times,serif" font-size="14.00">Format d&#39;écriture</text>
</g>
<!-- OutilsE -->
<g id="node2" class="node">
<title>OutilsE</title>
<path fill="#ececff" stroke="#6699ff" d="M24.5,-146.5C24.5,-146.5 101.5,-146.5 101.5,-146.5 107.5,-146.5 113.5,-152.5 113.5,-158.5 113.5,-158.5 113.5,-170.5 113.5,-170.5 113.5,-176.5 107.5,-182.5 101.5,-182.5 101.5,-182.5 24.5,-182.5 24.5,-182.5 18.5,-182.5 12.5,-176.5 12.5,-170.5 12.5,-170.5 12.5,-158.5 12.5,-158.5 12.5,-152.5 18.5,-146.5 24.5,-146.5"/>
<text text-anchor="middle" x="63" y="-159.6" font-family="Times,serif" font-size="14.00">Outils d&#39;édition</text>
</g>
<!-- FormatE&#45;&gt;OutilsE -->
<g id="edge1" class="edge">
<title>FormatE&#45;&gt;OutilsE</title>
<path fill="none" stroke="black" d="M116.41,-219.67C107.61,-210.74 96.63,-199.61 86.92,-189.76"/>
<polygon fill="black" stroke="black" points="89.98,-187.87 80.47,-183.21 85,-192.78 89.98,-187.87"/>
</g>
<!-- FormatP -->
<g id="node4" class="node">
<title>FormatP</title>
<path fill="#ececff" stroke="#6699ff" d="M145,-146.5C145,-146.5 265,-146.5 265,-146.5 271,-146.5 277,-152.5 277,-158.5 277,-158.5 277,-170.5 277,-170.5 277,-176.5 271,-182.5 265,-182.5 265,-182.5 145,-182.5 145,-182.5 139,-182.5 133,-176.5 133,-170.5 133,-170.5 133,-158.5 133,-158.5 133,-152.5 139,-146.5 145,-146.5"/>
<text text-anchor="middle" x="205" y="-159.6" font-family="Times,serif" font-size="14.00">Formats de publication</text>
</g>
<!-- FormatE&#45;&gt;FormatP -->
<g id="edge3" class="edge">
<title>FormatE&#45;&gt;FormatP</title>
<path fill="none" stroke="black" d="M150.06,-219.67C159.12,-210.74 170.41,-199.61 180.4,-189.76"/>
<polygon fill="black" stroke="black" points="182.4,-192.72 187.06,-183.21 177.48,-187.73 182.4,-192.72"/>
</g>
<!-- FlowE -->
<g id="node3" class="node">
<title>FlowE</title>
<path fill="#ececff" stroke="#6699ff" d="M12,-73.5C12,-73.5 110,-73.5 110,-73.5 116,-73.5 122,-79.5 122,-85.5 122,-85.5 122,-97.5 122,-97.5 122,-103.5 116,-109.5 110,-109.5 110,-109.5 12,-109.5 12,-109.5 6,-109.5 0,-103.5 0,-97.5 0,-97.5 0,-85.5 0,-85.5 0,-79.5 6,-73.5 12,-73.5"/>
<text text-anchor="middle" x="61" y="-86.6" font-family="Times,serif" font-size="14.00">Flux de production</text>
</g>
<!-- OutilsE&#45;&gt;FlowE -->
<g id="edge2" class="edge">
<title>OutilsE&#45;&gt;FlowE</title>
<path fill="none" stroke="black" d="M62.53,-146.67C62.3,-138.72 62.03,-129.01 61.78,-120.02"/>
<polygon fill="black" stroke="black" points="65.25,-120.1 61.47,-110.21 58.25,-120.3 65.25,-120.1"/>
</g>
<!-- OutilsP -->
<g id="node5" class="node">
<title>OutilsP</title>
<path fill="#ececff" stroke="#6699ff" d="M152.5,-73.5C152.5,-73.5 261.5,-73.5 261.5,-73.5 267.5,-73.5 273.5,-79.5 273.5,-85.5 273.5,-85.5 273.5,-97.5 273.5,-97.5 273.5,-103.5 267.5,-109.5 261.5,-109.5 261.5,-109.5 152.5,-109.5 152.5,-109.5 146.5,-109.5 140.5,-103.5 140.5,-97.5 140.5,-97.5 140.5,-85.5 140.5,-85.5 140.5,-79.5 146.5,-73.5 152.5,-73.5"/>
<text text-anchor="middle" x="207" y="-86.6" font-family="Times,serif" font-size="14.00">Outils de publication</text>
</g>
<!-- FormatP&#45;&gt;OutilsP -->
<g id="edge4" class="edge">
<title>FormatP&#45;&gt;OutilsP</title>
<path fill="none" stroke="black" d="M205.47,-146.67C205.7,-138.72 205.97,-129.01 206.22,-120.02"/>
<polygon fill="black" stroke="black" points="209.75,-120.3 206.53,-110.21 202.75,-120.1 209.75,-120.3"/>
</g>
<!-- FlowP -->
<g id="node6" class="node">
<title>FlowP</title>
<path fill="#ececff" stroke="#6699ff" d="M150,-0.5C150,-0.5 264,-0.5 264,-0.5 270,-0.5 276,-6.5 276,-12.5 276,-12.5 276,-24.5 276,-24.5 276,-30.5 270,-36.5 264,-36.5 264,-36.5 150,-36.5 150,-36.5 144,-36.5 138,-30.5 138,-24.5 138,-24.5 138,-12.5 138,-12.5 138,-6.5 144,-0.5 150,-0.5"/>
<text text-anchor="middle" x="207" y="-13.6" font-family="Times,serif" font-size="14.00">Chaîne de publication</text>
</g>
<!-- OutilsP&#45;&gt;FlowP -->
<g id="edge5" class="edge">
<title>OutilsP&#45;&gt;FlowP</title>
<path fill="none" stroke="black" d="M207,-73.67C207,-65.72 207,-56.01 207,-47.02"/>
<polygon fill="black" stroke="black" points="210.5,-47.21 207,-37.21 203.5,-47.21 210.5,-47.21"/>
</g>
</g>
</svg>
